Account Username,Account Password,Account Contact First Name,Account Contact Last Name,Account Contact Company,Account Contact Address,Account Contact Address2,Account Contact Country,Account Contact State,Account Contact City,Account Contact Postal Code,Account Contact Phone,Account Contact Fax,Account Contact Email,Account Contact URL,Listing ID,Listing Title,Listing SEO Title,Listing Email,Listing URL,Listing Address,Listing Address2,Listing Country,Listing Country Abbreviation,Listing Region,Listing Region Abbreviation,Listing State,Listing State Abbreviation,Listing City,Listing City Abbreviation,Listing Neighborhood,Listing Neighborhood Abbreviation,Listing Postal Code,Listing Latitude,Listing Longitude,Listing Phone,Listing Fax,Listing Short Description,Listing Long Description,Listing SEO Description,Listing Keywords,Listing Renewal Date,Listing Status,Listing Level,Listing Category 1,Listing Category 2,Listing Category 3,Listing Category 4,Listing Category 5,Listing Template,Custom ID
mark_sample@edirectory.com,test123,Mark,Wilson,HEALTH CARE,456 Main Street,,United States,Florida,Miami,33545,025 145 7789,,test_email@edirectory.com,http://www.edirectory.com/directory_ad.php,2,Ocean Resort,Ocean Resort,test_email@edirectory.com,http://www.edirectory.com/directory_ad.php,2226 14th Avenue,,United States,USA,South Atlantic,SA,Florida,FL,Miami,,,,32960,,,101 742 4245,101 742 4244,Sed pretium. Maecenas at erat quis quam convallis.,Sed pretium. Maecenas at erat quis quam convallis tincidunt. Nulla dictum massa sit amet risus. In auctor turpis vitae eros. Vivamus ut metus a est pretium interdum.,Sed pretium. Maecenas at erat quis quam convallis.,resort,12/31/2015,active,diamond,Travel->Resorts,Travel->Hotels,Travel->Cruises,Food and Dining->Restaurants,,Hotel,
fred_sample@edirectory.com,test123,Fred,Green,COFFEE HOUSE,554 Main Street,,United States,California,Sacramento,87456,015 254 2256,,test_email@edirectory.com,http://www.edirectory.com/directory_ad.php,3,Coffee House,Coffee House,test_email@edirectory.com,http://www.edirectory.com/directory_ad.php,305 Maple Ave West,,United States,USA,Pacific,PA,California,CA,Alamo,,,,22180,,,123 898 8989,123 898 8999,Sed pretium. Maecenas at erat quis quam convallis.,Sed pretium. Maecenas at erat quis quam convallis tincidunt. Nulla dictum massa sit amet risus. In auctor turpis vitae eros. Vivamus ut metus a est pretium interdum.,Sed pretium. Maecenas at erat quis quam convallis.,coffee || hot chocolate || cappucino,12/31/2015,pending,gold,Food and Dining->Coffee Shops,Food and Dining->Bagel Shops,,,,,
charles_sample@edirectory.com,test123,Charles,Perkins,HEALTH CARE,123 Main Street N,,United States,California,San Francisco,12345,111 222 3333,444 555 6666,test_email@edirectory.com,http://www.edirectory.com/directory_ad.php,5,All Sport Fitness,All Sport Fitness,test_email@edirectory.com,http://www.edirectory.com/directory_ad.php,2900 S. Bristol Street,Post Office Box 2294,United States,USA,South Atlantic,SA,Florida,FL,,,,,60462,,,(815) 462-0019,,Sed pretium. Maecenas at erat quis quam convallis.,Sed pretium. Maecenas at erat quis quam convallis tincidunt. Nulla dictum massa sit amet risus. In auctor turpis vitae eros. Vivamus ut metus a est pretium interdum.,Sed pretium. Maecenas at erat quis quam convallis.,sports,12/31/2015,active,bronze,Sports->Skiing,Sports->Tennis,Sports->Water Sports,,,,
,,,,,,,,,,,,,,,,Arts Center,Arts Center,test_email@edirectory.com,http://www.edirectory.com/directory_ad.php,4800 Texoma Pkwy,,United States,USA,West South Central,WSC,Texas,TX,Sherman,,,,75090,,,303 345 5454,303 345 4545,Sed pretium. Maecenas at erat quis quam convallis.,Sed pretium. Maecenas at erat quis quam convallis tincidunt. Nulla dictum massa sit amet risus. In auctor turpis vitae eros. Vivamus ut metus a est pretium interdum.,Sed pretium. Maecenas at erat quis quam convallis.,arts || dance || performing || studio,12/31/2015,suspended,diamond,Entertainment->Theaters,Entertainment->Concerts,,,,,
eric_sample@edirectory.com,test123,Eric,Deep,NEW YORK FLORIST,453 Main Street,,United States,New York,New York,12345,654 987 1235,856 952 3654,test_email@edirectory.com,http://www.edirectory.com/directory_ad.php,,Skin Care Center,Skin Care Center,test_email@edirectory.com,http://www.edirectory.com/directory_ad.php,520 East 88th Street,,United States,USA,Middle Atlantic,MA,New York,NY,New York,,,,10128,,,586 258 4566,145 256 9852,Sed pretium. Maecenas at erat quis quam convallis.,Sed pretium. Maecenas at erat quis quam convallis tincidunt. Nulla dictum massa sit amet risus. In auctor turpis vitae eros. Vivamus ut metus a est pretium interdum.,Sed pretium. Maecenas at erat quis quam convallis.,spa || day spa || laser clinic || nail || hair || salon || massage,12/31/2015,active,silver,Beauty and Fitness->Beauty Salons,Beauty and Fitness->Massage,Beauty and Fitness->Spas,,,,
